<?xml version="1.0" encoding="UTF-8"?>
<svg width="143px" height="108px" viewBox="0 0 143 108" version="1.1" xmlns="http://www.w3.org/2000/svg" xmlns:xlink="http://www.w3.org/1999/xlink">
    <!-- Generator: Sketch 52.5 (67469) - http://www.bohemiancoding.com/sketch -->
    <title>Combined Shape</title>
    <desc>Created with Sketch.</desc>
    <g id="Page-1" stroke="none" stroke-width="1" fill="none" fill-rule="evenodd">
        <path d="M142.039062,28.875 L142.039062,79.0734521 C142.039062,94.5374251 129.503035,107.073452 114.039062,107.073452 L28.2695313,107.073452 C12.8055583,107.073452 0.26953125,94.5374251 0.26953125,79.0734521 L0.26953125,28.875 C0.26953125,13.411027 12.8055583,0.875 28.2695313,0.875 L114.039062,0.875 C129.503035,0.875 142.039062,13.411027 142.039062,28.875 Z M123.769531,43 C123.769531,27.536027 111.233504,15 95.7695312,15 L47,15 C31.536027,15 19,27.536027 19,43 L19,65.1984521 C19,80.6624251 31.536027,93.1984521 47,93.1984521 L95.7695312,93.1984521 C111.233504,93.1984521 123.769531,80.6624251 123.769531,65.1984521 L123.769531,43 Z" id="Combined-Shape" fill="#F9F9F9"></path>
    </g>
</svg>